<?xml version="1.0" encoding="utf-8"?>
<svg version="1.1" xmlns="http://www.w3.org/2000/svg" xmlns:xlink="http://www.w3.org/1999/xlink" viewBox="0 0 406.469 492.748" xml:space="preserve">
	<path fill="#FFFFFF" d="M203.086,1.565h201.839v296.668c0,106.594-90.281,193.047-201.703,193.047c-111.406,0-201.711-86.453-201.711-193.047V1.565H203.086z"/>
	<path fill="#E8423F" d="M274.115,1.748v477.259c76.164-27.384,130.414-97.538,130.805-179.905V1.746L274.115,1.748L274.115,1.748z"/>
	<path fill="#16A74E" d="M1.52,1.756v296.477c0,85.461,58.031,157.922,138.43,183.313V1.757L1.52,1.756L1.52,1.756z"/>
	<polygon fill="#FFFFFF" points="393.559,59.955 346.365,59.955 346.365,12.526 332.332,12.526 332.332,59.955 285.99,59.955 285.99,73.998 332.332,73.998 332.332,119.877 346.365,119.877 346.365,73.998 393.559,73.998 "/>
	<path fill="none" stroke="#010202" stroke-width="3" d="M203.086,1.533h201.839v296.668c0,106.609-90.281,193.031-201.703,193.031c-111.406,0-201.711-86.422-201.711-193.031V1.533H203.086z"/>
</svg>
