<?xml version="1.0" encoding="utf-8"?>
<svg version="1.1" xmlns="http://www.w3.org/2000/svg" xmlns:xlink="http://www.w3.org/1999/xlink" viewBox="-176.119 -213.831 406.523 492.832" xml:space="preserve">
	<path fill="#E7423F" d="M27.018-212.311h201.871V84.392c0,106.633-90.328,193.07-201.742,193.07c-111.426,0-201.746-86.438-201.746-193.07v-296.703H27.018z"/>
	<polygon fill="#FFFFFF" points="209.686,-139.518 151.092,-139.518 151.092,-197.553 132.014,-197.553 132.014,-139.518 73.577,-139.518 73.577,-120.217 132.014,-120.217 132.014,-61.92 151.092,-61.92 151.092,-120.217 209.686,-120.217 "/>
	<path fill="none" stroke="#000000" stroke-width="3.048" d="M27.018-212.311h201.871V84.392c0,106.633-90.328,193.07-201.742,193.07c-111.426,0-201.746-86.438-201.746-193.07v-296.703H27.018z"/>
</svg>
